<?xml version="1.0" encoding="UTF-8" standalone="no"?>
<svg width="38px" height="23px" viewBox="0 0 38 23" version="1.1" xmlns="http://www.w3.org/2000/svg" xmlns:xlink="http://www.w3.org/1999/xlink" xmlns:sketch="http://www.bohemiancoding.com/sketch/ns">
    <!-- Generator: Sketch 3.3 (11970) - http://www.bohemiancoding.com/sketch -->
    <title>Line + Path 2</title>
    <desc>Created with Sketch.</desc>
    <defs></defs>
    <g id="Page-1" stroke="none" stroke-width="1" fill="none" fill-rule="evenodd" sketch:type="MSPage">
        <g id="Line-+-Path-2" sketch:type="MSLayerGroup" transform="translate(1.000000, -0.000000)" stroke="#4900FF" stroke-width="2">
            <path d="M0.5,11.3963549 L34.5147018,11.3963549" id="Line" stroke-linecap="square" sketch:type="MSShapeGroup"></path>
            <path d="M24.780151,0.741699219 L35.2141647,11.6169968 L24.780151,22.0510105" id="Path-2" sketch:type="MSShapeGroup"></path>
        </g>
    </g>
</svg>